<?xml version="1.0" encoding="utf-8"?>
<!-- Generator: Adobe Illustrator 22.0.0, SVG Export Plug-In . SVG Version: 6.00 Build 0)  -->
<svg version="1.1" id="Livello_1" xmlns="http://www.w3.org/2000/svg" xmlns:xlink="http://www.w3.org/1999/xlink" x="0px" y="0px"
	 viewBox="0 0 429 250.7" style="enable-background:new 0 0 429 250.7;" xml:space="preserve">
<style type="text/css">
	.st0{fill:#005DB9;}
	.st1{fill:#002E1F;}
	.st2{fill:#FF0099;}
	.st3{fill:#FFC899;}
</style>
<rect x="47.2" y="22" class="st0" width="105.1" height="105.1"/>
<rect x="21.4" y="96.5" class="st1" width="105.1" height="105.1"/>
<rect x="136.1" y="55.2" class="st2" width="105.1" height="105.1"/>
<rect x="270.7" y="22" class="st2" width="105.1" height="105.1"/>
<rect x="214.5" y="107.8" class="st3" width="105.1" height="105.1"/>
</svg>
