<?xml version="1.0" encoding="utf-8"?>
<!-- Generator: Adobe Illustrator 22.0.0, SVG Export Plug-In . SVG Version: 6.00 Build 0)  -->
<svg version="1.1" id="Livello_1" xmlns="http://www.w3.org/2000/svg" xmlns:xlink="http://www.w3.org/1999/xlink" x="0px" y="0px"
	 viewBox="0 0 429 250.7" style="enable-background:new 0 0 429 250.7;" xml:space="preserve">
<style type="text/css">
	.st0{fill:#FFFFFF;}
	.st1{fill:#E0E0E0;}
	.st2{fill:#EF5350;}
	.st3{fill:#FFEE58;}
	.st4{fill:#66BB6A;}
	.st5{fill:#F5F5F5;}
	.st6{fill:#9E9E9E;}
</style>
<g>
	
		<image style="overflow:visible;opacity:0.15;" width="332" height="231" xlink:href="FE7C9EAF48A11D9.png"  transform="matrix(1 0 0 1 50.1505 7.769)">
	</image>
	<g>
		<g>
			<path class="st0" d="M353.4,223.7H64.6c-3.5,0-6.4-2.8-6.4-6.4V29.6c0-3.5,2.8-6.4,6.4-6.4h288.8c3.5,0,6.4,2.8,6.4,6.4v187.7
				C359.8,220.8,356.9,223.7,353.4,223.7z"/>
			<path class="st1" d="M353.4,23.1H64.6c-3.5,0-6.4,2.8-6.4,6.4v18h301.5v-18C359.8,26,356.9,23.1,353.4,23.1z"/>
			<ellipse transform="matrix(0.2981 -0.9545 0.9545 0.2981 15.4161 91.5691)" class="st2" cx="70" cy="35.3" rx="3.8" ry="3.8"/>
			<circle class="st3" cx="81.3" cy="35.3" r="3.8"/>
			
				<ellipse transform="matrix(0.995 -9.998272e-02 9.998272e-02 0.995 -3.0651 9.444)" class="st4" cx="92.7" cy="35.3" rx="3.8" ry="3.8"/>
			<path class="st0" d="M315.3,29.8H158.7c-0.6,0-1.1,0.5-1.1,1.1v8.9c0,0.6,0.5,1.1,1.1,1.1h156.6c0.6,0,1.1-0.5,1.1-1.1v-8.9
				C316.4,30.2,315.9,29.8,315.3,29.8z"/>
			<g>
				<g>
					<path class="st5" d="M143.3,40.9H131c-0.8,0-1.5-0.7-1.5-1.5v-8c0-0.8,0.7-1.5,1.5-1.5h12.3c0.8,0,1.5,0.7,1.5,1.5v8
						C144.9,40.2,144.2,40.9,143.3,40.9z"/>
					<g>
						<polygon class="st6" points="135.8,38.7 135.1,38 137.9,35.3 135.1,32.6 135.8,31.9 139.2,35.3 						"/>
					</g>
				</g>
				<g>
					<path class="st5" d="M110.8,40.9H123c0.8,0,1.5-0.7,1.5-1.5v-8c0-0.8-0.7-1.5-1.5-1.5h-12.3c-0.8,0-1.5,0.7-1.5,1.5v8
						C109.2,40.2,109.9,40.9,110.8,40.9z"/>
					<g>
						<polygon class="st6" points="118.3,38.7 118.9,38 116.2,35.3 118.9,32.6 118.3,31.9 114.9,35.3 						"/>
					</g>
				</g>
			</g>
			<path class="st6" d="M165.2,36.1c0.7-1,0.5-2.3-0.3-3.1c-1-1-2.5-1-3.5,0c-1,1-1,2.5,0,3.5c0.8,0.8,2.2,1,3.1,0.3l1.7,1.7
				l0.7-0.7L165.2,36.1z M164.2,35.8c-0.6,0.6-1.6,0.6-2.2,0c-0.6-0.6-0.6-1.6,0-2.2c0.3-0.3,0.7-0.5,1.1-0.5c0.4,0,0.8,0.2,1.1,0.5
				C164.8,34.2,164.8,35.2,164.2,35.8z"/>
			<path class="st0" d="M332.6,40.9h-9.3c-0.8,0-1.4-0.6-1.4-1.4v-7.7c0-0.8,0.6-1.4,1.4-1.4h9.3c0.8,0,1.4,0.6,1.4,1.4v7.7
				C334,40.3,333.4,40.9,332.6,40.9z"/>
			<path class="st0" d="M350.2,40.9h-9.3c-0.8,0-1.4-0.6-1.4-1.4v-7.7c0-0.8,0.6-1.4,1.4-1.4h9.3c0.8,0,1.4,0.6,1.4,1.4v7.7
				C351.7,40.3,351,40.9,350.2,40.9z"/>
			<path class="st6" d="M348.5,32.7h-4.7v1.2h-1.2v4.7h4.7v-1.2h1.2V32.7z M346.8,38h-3.6v-3.6h3.6V38z M348,36.9h-0.6v-3h-3v-0.6
				h3.6V36.9z"/>
			<polygon class="st6" points="328.9,32.4 327.9,31.4 326.8,32.5 327.1,32.8 327.7,32.1 327.7,34.9 328.1,34.9 328.1,32.1 
				328.6,32.7 			"/>
			<polygon class="st6" points="328.4,33.1 328.4,33.6 330,33.6 330,37.7 325.8,37.7 325.8,33.6 327.4,33.6 327.4,33.1 325.4,33.1 
				325.4,38.2 330.5,38.2 330.5,33.1 			"/>
		</g>
	</g>
</g>
</svg>
