<?xml version="1.0" encoding="utf-8"?>
<!-- Generator: Adobe Illustrator 22.0.0, SVG Export Plug-In . SVG Version: 6.00 Build 0)  -->
<svg version="1.1" id="Livello_1" xmlns="http://www.w3.org/2000/svg" xmlns:xlink="http://www.w3.org/1999/xlink" x="0px" y="0px"
	 viewBox="0 0 429 250.7" style="enable-background:new 0 0 429 250.7;" xml:space="preserve">
<style type="text/css">
	.st0{fill:#65FCF8;}
	.st1{fill:#4D4D4D;}
	.st2{fill:#FFFFFF;}
	.st3{fill:#FFED00;}
	.st4{fill:none;stroke:#4D4D4D;stroke-width:1.5315;stroke-miterlimit:10;}
	.st5{fill:none;stroke:#4D4D4D;stroke-width:1.0687;stroke-miterlimit:10;}
	.st6{fill:none;stroke:#4D4D4D;stroke-width:0.8365;stroke-miterlimit:10;}
	.st7{fill:none;stroke:#4D4D4D;stroke-width:0.6772;stroke-miterlimit:10;}
	.st8{fill:none;stroke:#4D4D4D;stroke-width:1.1077;stroke-miterlimit:10;}
	.st9{fill:#FFFFFF;stroke:#4D4D4D;stroke-width:1.1077;stroke-miterlimit:10;}
	.st10{fill:none;stroke:#FFFFFF;stroke-width:2.3693;stroke-miterlimit:10;}
	.st11{fill:none;stroke:#FFFFFF;stroke-width:2.3693;stroke-miterlimit:10;stroke-dasharray:5.8974,5.8974;}
</style>
<g>
	<g>
		<path class="st0" d="M79.7,240.6v-27.2c0-2.5-2-4.5-4.5-4.5H55.2c-2.5,0-4.5,2-4.5,4.5v27.2H79.7z"/>
		<path class="st1" d="M47.4,213.4c0-2.9,2.4-5.3,5.3-5.3h20.1c2.9,0,5.3,2.4,5.3,5.3v28H47.4V213.4z M76.5,213.4
			c0-2-1.7-3.7-3.7-3.7H52.7c-2,0-3.7,1.7-3.7,3.7v26.4h27.5V213.4z"/>
	</g>
	<g>
		<g>
			<path class="st2" d="M126.7,220.9c0,1.3,1.1,2.4,2.4,2.4h128.8c1.3,0,2.4-1.1,2.4-2.4V138c0-1.3-1.1-2.4-2.4-2.4H129.1
				c-1.3,0-2.4,1.1-2.4,2.4V220.9z"/>
			<path class="st1" d="M125,220.9V138c0-2.3,1.8-4.1,4.1-4.1h128.8c2.3,0,4.1,1.8,4.1,4.1v82.9c0,2.3-1.8,4.1-4.1,4.1H129.1
				C126.9,225,125,223.1,125,220.9z M129.1,137.2c-0.4,0-0.8,0.4-0.8,0.8v82.9c0,0.4,0.4,0.8,0.8,0.8h128.8c0.4,0,0.8-0.4,0.8-0.8
				V138c0-0.4-0.4-0.8-0.8-0.8H129.1z"/>
		</g>
		<g>
			<rect x="139.2" y="142" class="st3" width="119" height="71"/>
		</g>
		<g>
			<path class="st2" d="M192.9,138.7c0,0.3,0.3,0.6,0.6,0.6c0.3,0,0.6-0.3,0.6-0.6c0-0.3-0.3-0.6-0.6-0.6
				C193.2,138.1,192.9,138.4,192.9,138.7z"/>
			<path class="st1" d="M191.3,138.7c0-1.2,1-2.2,2.2-2.2c1.2,0,2.2,1,2.2,2.2c0,1.2-1,2.2-2.2,2.2
				C192.3,140.9,191.3,139.9,191.3,138.7z M192.4,138.7c0,0.6,0.5,1.1,1.1,1.1c0.6,0,1.1-0.5,1.1-1.1c0-0.6-0.5-1.1-1.1-1.1
				C192.9,137.6,192.4,138.1,192.4,138.7z"/>
		</g>
		<g>
			<path class="st2" d="M192.7,217.9c0,0.5,0.4,0.8,0.8,0.8c0.5,0,0.8-0.4,0.8-0.8c0-0.5-0.4-0.8-0.8-0.8
				C193.1,217,192.7,217.4,192.7,217.9z"/>
			<path class="st1" d="M191,217.9c0-1.4,1.1-2.5,2.5-2.5c1.4,0,2.5,1.1,2.5,2.5c0,1.4-1.1,2.5-2.5,2.5
				C192.2,220.3,191,219.2,191,217.9z M192.7,217.9c0,0.5,0.4,0.8,0.8,0.8c0.5,0,0.8-0.4,0.8-0.8c0-0.5-0.4-0.8-0.8-0.8
				C193.1,217,192.7,217.4,192.7,217.9z"/>
		</g>
		<g>
			<rect x="169.9" y="234.5" class="st2" width="47.2" height="6.1"/>
			<path class="st1" d="M168.3,232.8h50.5v9.4h-50.5V232.8z M215.5,236.1h-43.9v2.8h43.9V236.1z"/>
		</g>
		<g>
			<rect x="179.6" y="223.3" class="st2" width="27.9" height="11.2"/>
			<path class="st1" d="M177.9,221.7h31.2v14.5h-31.2V221.7z M205.8,225h-24.6v7.9h24.6V225z"/>
		</g>
	</g>
	<g>
		<rect x="228.9" y="151.5" class="st2" width="14" height="14"/>
		<path class="st1" d="M227.2,149.9h17.3v17.3h-17.3V149.9z M241.2,153.2h-10.7v10.7h10.7V153.2z"/>
	</g>
	<g>
		<rect x="144.3" y="151.5" class="st2" width="14" height="14"/>
		<path class="st1" d="M142.7,149.9H160v17.3h-17.3V149.9z M156.7,153.2h-10.7v10.7h10.7V153.2z"/>
	</g>
	<g>
		<rect x="205.8" y="173.2" class="st2" width="37.1" height="14"/>
		<path class="st1" d="M204.2,171.5h40.4v17.3h-40.4V171.5z M241.2,174.8h-33.8v10.7h33.8V174.8z"/>
	</g>
	<g>
		<rect x="144.3" y="173.2" class="st2" width="31" height="14"/>
		<path class="st1" d="M142.7,171.5H177v17.3h-34.3V171.5z M173.7,174.8h-27.7v10.7h27.7V174.8z"/>
	</g>
	<g>
		<rect x="183.3" y="173.2" class="st2" width="14" height="14"/>
		<path class="st1" d="M181.6,171.5h17.3v17.3h-17.3V171.5z M195.6,174.8h-10.7v10.7h10.7V174.8z"/>
	</g>
	<g>
		<line class="st2" x1="244.5" y1="196.3" x2="185.8" y2="196.3"/>
		<rect x="185.8" y="194.6" class="st1" width="58.7" height="3.3"/>
	</g>
	<g>
		<line class="st2" x1="214.9" y1="203.1" x2="204.7" y2="203.1"/>
		<rect x="204.7" y="201.5" class="st1" width="10.2" height="3.3"/>
	</g>
	<g>
		<line class="st2" x1="244.5" y1="203.1" x2="221.2" y2="203.1"/>
		<rect x="221.2" y="201.5" class="st1" width="23.3" height="3.3"/>
	</g>
	<g>
		<line class="st2" x1="197" y1="203.1" x2="149.8" y2="203.1"/>
		<rect x="149.8" y="201.5" class="st1" width="47.2" height="3.3"/>
	</g>
	<g>
		<line class="st2" x1="178.1" y1="196.3" x2="166.3" y2="196.3"/>
		<rect x="166.3" y="194.6" class="st1" width="11.8" height="3.3"/>
	</g>
	<g>
		<line class="st2" x1="161.9" y1="196.3" x2="142.5" y2="196.3"/>
		<rect x="142.5" y="194.6" class="st1" width="19.4" height="3.3"/>
	</g>
	<g>
		<g>
			<polygon class="st2" points="62.9,213.2 60.9,215.4 58.1,214.5 57.5,217.4 54.6,218 55.6,220.8 53.4,222.8 55.6,224.7 
				54.6,227.5 57.5,228.1 58.1,231 60.9,230.1 62.9,232.3 64.8,230.1 67.6,231 68.2,228.1 71.1,227.5 70.2,224.7 72.4,222.8 
				70.2,220.8 71.1,218 68.2,217.4 67.6,214.5 64.8,215.4 			"/>
		</g>
		<g>
			<path class="st3" d="M62.5,222.8c0,1.6,1.3,2.8,2.8,2.8c1.6,0,2.8-1.3,2.8-2.8c0-1.6-1.3-2.8-2.8-2.8
				C63.8,219.9,62.5,221.2,62.5,222.8z"/>
			<path class="st1" d="M59.3,222.8c0-2,1.6-3.6,3.6-3.6c2,0,3.6,1.6,3.6,3.6c0,2-1.6,3.6-3.6,3.6C60.9,226.4,59.3,224.7,59.3,222.8
				z M60.8,222.8c0,1.1,0.9,2,2,2c1.1,0,2-0.9,2-2c0-1.1-0.9-2-2-2C61.8,220.7,60.8,221.6,60.8,222.8z"/>
		</g>
	</g>
	<g>
		<rect x="100.8" y="169.4" class="st2" width="2.4" height="71.4"/>
		<path class="st1" d="M100,168.6h4v73h-4V168.6z M102.4,170.2h-0.8V240h0.8V170.2z"/>
	</g>
	<g>
		<g>
			<path class="st0" d="M104.9,162c-0.5-0.6-1.4-0.6-2,0c-0.6,0.7-1.5,0.9-2.4,0.6c-0.7-0.2-1.5,0.2-1.7,1c-0.2,0.9-0.9,1.6-1.7,1.7
				c-0.8,0.2-1.2,1-1,1.7c0.3,0.8,0,1.8-0.6,2.4c-0.6,0.5-0.6,1.4,0,2c0.7,0.6,0.9,1.5,0.6,2.4c-0.2,0.7,0.2,1.5,1,1.7
				c0.9,0.2,1.6,0.9,1.7,1.7c0.2,0.8,1,1.2,1.7,1c0.8-0.3,1.8,0,2.4,0.6c0.5,0.6,1.4,0.6,2,0c0.6-0.7,1.5-0.9,2.4-0.6
				c0.7,0.2,1.5-0.2,1.7-1c0.2-0.9,0.9-1.6,1.7-1.7c0.8-0.2,1.2-1,1-1.7c-0.3-0.8,0-1.8,0.6-2.4c0.6-0.5,0.6-1.4,0-2
				c-0.7-0.6-0.9-1.5-0.6-2.4c0.2-0.7-0.2-1.5-1-1.7c-0.9-0.2-1.6-0.9-1.7-1.7c-0.2-0.8-1-1.2-1.7-1
				C106.4,162.9,105.5,162.6,104.9,162z"/>
			<path class="st1" d="M100.4,178.1c-0.4-0.4-1-0.6-1.5-0.4c-0.2,0.1-0.4,0.1-0.7,0.1c-1,0-1.9-0.7-2.1-1.7c-0.1-0.6-0.6-1-1.1-1.1
				c-0.6-0.1-1.1-0.5-1.4-1c-0.3-0.5-0.4-1.1-0.2-1.7c0.2-0.6,0-1.2-0.4-1.5c-0.4-0.4-0.7-1-0.7-1.6c0-0.6,0.3-1.2,0.7-1.6
				c0.4-0.4,0.6-1,0.4-1.5c-0.2-0.6-0.1-1.2,0.2-1.7c0.3-0.5,0.8-0.9,1.4-1c0.6-0.1,1-0.6,1.1-1.1c0.2-1,1.1-1.7,2.1-1.7
				c0.2,0,0.4,0,0.7,0.1c0.5,0.2,1.2,0,1.5-0.4c0.4-0.4,1-0.7,1.6-0.7c0.6,0,1.2,0.3,1.6,0.7c0.3,0.3,0.7,0.5,1.1,0.5l0,0
				c0.2,0,0.3,0,0.5-0.1c0.2-0.1,0.4-0.1,0.7-0.1c1,0,1.9,0.7,2.1,1.7c0.1,0.6,0.6,1,1.1,1.1c0.6,0.1,1.1,0.5,1.4,1
				c0.3,0.5,0.4,1.1,0.2,1.7c-0.2,0.6,0,1.2,0.4,1.5c0.4,0.4,0.7,1,0.7,1.6c0,0.6-0.3,1.2-0.7,1.6c-0.4,0.4-0.6,1-0.4,1.5
				c0.2,0.6,0.1,1.2-0.2,1.7c-0.3,0.5-0.8,0.9-1.4,1c-0.6,0.1-1,0.6-1.1,1.1c-0.2,1-1.1,1.7-2.1,1.7c-0.2,0-0.4,0-0.7-0.1
				c-0.5-0.2-1.2,0-1.5,0.4c-0.4,0.4-1,0.7-1.6,0.7C101.4,178.8,100.8,178.6,100.4,178.1z M105.6,176.2c0.3,0.1,0.6,0,0.7-0.4
				c0.2-1.2,1.2-2.1,2.4-2.4c0.2,0,0.3-0.2,0.3-0.3c0-0.1,0.1-0.2,0-0.4c-0.4-1.1,0-2.4,0.9-3.2c0.2-0.1,0.2-0.3,0.2-0.4
				c0-0.1,0-0.3-0.2-0.4c-0.9-0.8-1.2-2.1-0.9-3.2c0.1-0.2,0-0.4,0-0.4c0-0.1-0.1-0.2-0.3-0.3c-1.2-0.2-2.1-1.2-2.4-2.4
				c-0.1-0.3-0.4-0.5-0.7-0.4c-0.3,0.1-0.6,0.2-0.9,0.2l0,0c-0.9,0-1.7-0.4-2.3-1c-0.1-0.2-0.3-0.2-0.4-0.2c-0.1,0-0.3,0-0.4,0.2
				c-0.6,0.6-1.4,1-2.3,1c-0.3,0-0.6-0.1-0.9-0.2c-0.3-0.1-0.6,0-0.7,0.4c-0.2,1.2-1.2,2.1-2.4,2.4c-0.2,0-0.3,0.2-0.3,0.3
				c0,0.1-0.1,0.2,0,0.4c0.4,1.1,0,2.4-0.9,3.2c-0.2,0.1-0.2,0.3-0.2,0.4c0,0.1,0,0.3,0.2,0.4c0.9,0.8,1.2,2.1,0.9,3.2
				c-0.1,0.2,0,0.4,0,0.4c0,0.1,0.1,0.2,0.3,0.3c1.2,0.2,2.1,1.2,2.4,2.4c0.1,0.3,0.4,0.5,0.7,0.4c0.3-0.1,0.6-0.2,0.9-0.2
				c0.9,0,1.7,0.4,2.3,1c0.1,0.2,0.3,0.2,0.4,0.2c0.1,0,0.3,0,0.4-0.2c0.6-0.6,1.4-1,2.3-1C105,176,105.3,176.1,105.6,176.2z"/>
		</g>
		<g>
			<path class="st2" d="M99.2,169.2c0,1.6,1.3,2.8,2.8,2.8c1.6,0,2.8-1.3,2.8-2.8c0-1.6-1.3-2.8-2.8-2.8
				C100.5,166.3,99.2,167.6,99.2,169.2z"/>
			<path class="st1" d="M98.4,169.2c0-2,1.6-3.6,3.6-3.6c2,0,3.6,1.6,3.6,3.6c0,2-1.6,3.6-3.6,3.6C100,172.8,98.4,171.2,98.4,169.2z
				 M100,169.2c0,1.1,0.9,2,2,2c1.1,0,2-0.9,2-2c0-1.1-0.9-2-2-2C100.9,167.1,100,168,100,169.2z"/>
		</g>
	</g>
	<g>
		<rect x="93.6" y="174.1" class="st1" width="1.6" height="34.6"/>
	</g>
	<g>
		<g>
			<path class="st1" d="M89.8,207.5h9.3v19.8h-9.3V207.5z M97.5,209.1h-6.1v16.6h6.1V209.1z"/>
		</g>
		<g>
			<path class="st1" d="M89.8,210.5h9.3v13.8h-9.3V210.5z M97.5,212.1h-6.1v10.7h6.1V212.1z"/>
		</g>
		<g>
			<path class="st1" d="M89.8,213.8h9.3v6.9h-9.3V213.8z M97.5,215.4h-6.1v3.8h6.1V215.4z"/>
		</g>
	</g>
	<g>
		<polygon class="st1" points="65.9,224.7 105.1,171 103.8,170.2 64.6,223.9 		"/>
	</g>
	<g>
		<polygon class="st1" points="61.2,221.6 100.2,168.3 98.8,167.5 59.9,220.8 		"/>
	</g>
	<g>
		
			<rect x="186.6" y="124.6" transform="matrix(0.4011 -0.916 0.916 0.4011 -23.2385 268.2795)" class="st0" width="14" height="54.6"/>
		<path class="st1" d="M162.3,144.3l6.9-15.8l53.1,23.2l-6.9,15.8L162.3,144.3z M170.9,132.8l-4.3,9.8l47,20.6l4.3-9.8L170.9,132.8z
			"/>
	</g>
	<g>
		<g>
			<path class="st0" d="M209.9,91.7H246c2.3,0,4.2,1.9,4.2,4.2V116c0,2.3-1.9,4.2-4.2,4.2h-12l-6.1,6.1l-6.1-6.1h-12
				c-2.3,0-4.2-1.9-4.2-4.2V95.8C205.7,93.5,207.6,91.7,209.9,91.7z"/>
		</g>
		<g>
			<path class="st4" d="M205.3,91.7h36.1c2.3,0,4.2,1.9,4.2,4.2V116c0,2.3-1.9,4.2-4.2,4.2h-12l-6.1,6.1l-6.1-6.1h-12
				c-2.3,0-4.2-1.9-4.2-4.2V95.8C201.1,93.5,203,91.7,205.3,91.7z"/>
		</g>
		<g>
			<g>
				<rect x="213.7" y="96" class="st2" width="30" height="1.9"/>
			</g>
			<g>
				<rect x="212.1" y="100.4" class="st2" width="21.2" height="2"/>
			</g>
			<g>
				<rect x="236.4" y="100.4" class="st2" width="7.3" height="2"/>
			</g>
			<g>
				<rect x="212.1" y="104.7" class="st2" width="9.4" height="2"/>
			</g>
			<g>
				<rect x="224.6" y="104.7" class="st2" width="19.1" height="2"/>
			</g>
			<g>
				<rect x="215.3" y="109.1" class="st2" width="28.4" height="2"/>
			</g>
			<g>
				<rect x="212.1" y="113.4" class="st2" width="15.4" height="2"/>
			</g>
			<g>
				<rect x="231.9" y="113.4" class="st2" width="11.9" height="2"/>
			</g>
		</g>
	</g>
	<g>
		<g>
			<path class="st0" d="M198.9,58H224c1.6,0,2.9,1.3,2.9,2.9V75c0,1.6-1.3,2.9-2.9,2.9h-8.3l-4.2,4.2l-4.2-4.2h-8.3
				c-1.6,0-2.9-1.3-2.9-2.9V60.9C196,59.3,197.3,58,198.9,58z"/>
		</g>
		<g>
			<path class="st5" d="M195.7,58h25.2c1.6,0,2.9,1.3,2.9,2.9V75c0,1.6-1.3,2.9-2.9,2.9h-8.3l-4.2,4.2l-4.2-4.2h-8.3
				c-1.6,0-2.9-1.3-2.9-2.9V60.9C192.8,59.3,194.1,58,195.7,58z"/>
		</g>
		<g>
			<g>
				<rect x="201.5" y="61" class="st2" width="21" height="1.4"/>
			</g>
			<g>
				<rect x="200.4" y="64.1" class="st2" width="14.8" height="1.4"/>
			</g>
			<g>
				<rect x="217.4" y="64.1" class="st2" width="5.1" height="1.4"/>
			</g>
			<g>
				<rect x="200.4" y="67.1" class="st2" width="6.6" height="1.4"/>
			</g>
			<g>
				<rect x="209.1" y="67.1" class="st2" width="13.3" height="1.4"/>
			</g>
			<g>
				<rect x="202.7" y="70.1" class="st2" width="19.8" height="1.4"/>
			</g>
			<g>
				<rect x="200.4" y="73.2" class="st2" width="10.7" height="1.4"/>
			</g>
			<g>
				<rect x="214.2" y="73.2" class="st2" width="8.3" height="1.4"/>
			</g>
		</g>
	</g>
	<g>
		<g>
			<path class="st0" d="M224.6,33.6h19.7c1.3,0,2.3,1,2.3,2.3v11c0,1.3-1,2.3-2.3,2.3h-6.5l-3.3,3.3l-3.3-3.3h-6.5
				c-1.3,0-2.3-1-2.3-2.3v-11C222.3,34.7,223.3,33.6,224.6,33.6z"/>
		</g>
		<g>
			<path class="st6" d="M222.1,33.6h19.7c1.3,0,2.3,1,2.3,2.3v11c0,1.3-1,2.3-2.3,2.3h-6.5l-3.3,3.3l-3.3-3.3h-6.5
				c-1.3,0-2.3-1-2.3-2.3v-11C219.8,34.7,220.8,33.6,222.1,33.6z"/>
		</g>
		<g>
			<g>
				<rect x="226.7" y="36" class="st2" width="16.4" height="1.1"/>
			</g>
			<g>
				<rect x="225.8" y="38.4" class="st2" width="11.6" height="1.1"/>
			</g>
			<g>
				<rect x="239.1" y="38.4" class="st2" width="4" height="1.1"/>
			</g>
			<g>
				<rect x="225.8" y="40.8" class="st2" width="5.1" height="1.1"/>
			</g>
			<g>
				<rect x="232.6" y="40.8" class="st2" width="10.4" height="1.1"/>
			</g>
			<g>
				<rect x="227.6" y="43.2" class="st2" width="15.5" height="1.1"/>
			</g>
			<g>
				<rect x="225.8" y="45.5" class="st2" width="8.4" height="1.1"/>
			</g>
			<g>
				<rect x="236.6" y="45.5" class="st2" width="6.5" height="1.1"/>
			</g>
		</g>
	</g>
	<g>
		<g>
			<path class="st0" d="M200.3,14.1h15.9c1,0,1.8,0.8,1.8,1.8v8.9c0,1-0.8,1.8-1.8,1.8H211l-2.7,2.7l-2.7-2.7h-5.3
				c-1,0-1.8-0.8-1.8-1.8v-8.9C198.5,14.9,199.3,14.1,200.3,14.1z"/>
		</g>
		<g>
			<path class="st7" d="M198.3,14.1h15.9c1,0,1.8,0.8,1.8,1.8v8.9c0,1-0.8,1.8-1.8,1.8h-5.3l-2.7,2.7l-2.7-2.7h-5.3
				c-1,0-1.8-0.8-1.8-1.8v-8.9C196.5,14.9,197.3,14.1,198.3,14.1z"/>
		</g>
		<g>
			<g>
				<rect x="202" y="16" class="st2" width="13.3" height="0.9"/>
			</g>
			<g>
				<rect x="201.3" y="17.9" class="st2" width="9.4" height="0.9"/>
			</g>
			<g>
				<rect x="212.1" y="17.9" class="st2" width="3.2" height="0.9"/>
			</g>
			<g>
				<rect x="201.3" y="19.9" class="st2" width="4.2" height="0.9"/>
			</g>
			<g>
				<rect x="206.8" y="19.9" class="st2" width="8.5" height="0.9"/>
			</g>
			<g>
				<rect x="202.7" y="21.8" class="st2" width="12.6" height="0.9"/>
			</g>
			<g>
				<rect x="201.3" y="23.7" class="st2" width="6.8" height="0.9"/>
			</g>
			<g>
				<rect x="210" y="23.7" class="st2" width="5.3" height="0.9"/>
			</g>
		</g>
	</g>
	<g>
		<g>
			<path class="st2" d="M52.8,185.9c0,5.2,4.2,9.5,9.5,9.5s9.5-4.2,9.5-9.5c0-5.2-4.2-9.5-9.5-9.5S52.8,180.6,52.8,185.9z"/>
			<path class="st1" d="M51.3,185.9c0-6,4.9-10.9,10.9-10.9c6,0,10.9,4.9,10.9,10.9c0,6-4.9,10.9-10.9,10.9
				C56.2,196.7,51.3,191.9,51.3,185.9z M54.2,185.9c0,4.4,3.6,8.1,8.1,8.1c4.4,0,8.1-3.6,8.1-8.1c0-4.4-3.6-8.1-8.1-8.1
				C57.8,177.8,54.2,181.4,54.2,185.9z"/>
		</g>
		<g>
			<line class="st2" x1="62.2" y1="180.8" x2="62.2" y2="190.9"/>
			<rect x="60.8" y="180.8" class="st1" width="2.8" height="10.2"/>
		</g>
		<g>
			<line class="st2" x1="57.1" y1="185.9" x2="67.3" y2="185.9"/>
			<rect x="57.1" y="184.4" class="st1" width="10.2" height="2.8"/>
		</g>
	</g>
	<polyline class="st8" points="99.5,161.4 99.5,64.3 170.3,64.3 170.3,133 	"/>
	<circle class="st9" cx="100" cy="64.9" r="5"/>
	<circle class="st0" cx="100" cy="64.9" r="3.3"/>
	<circle class="st9" cx="169.8" cy="64.9" r="5"/>
	<circle class="st0" cx="169.8" cy="64.9" r="3.3"/>
</g>
<g>
	<g>
		<g>
			<line class="st10" x1="294.5" y1="0.7" x2="294.5" y2="3.7"/>
			<path class="st11" d="M294.5,9.6v38.1c0,3.5,2.8,6.3,6.3,6.3h33.6c3.5,0,6.3,2.8,6.3,6.3v71.5c0,3.5-2.8,6.3-6.3,6.3h-34.8
				c-3.5,0-6.3,2.8-6.3,6.3v97.9"/>
			<line class="st10" x1="293.3" y1="245.3" x2="293.3" y2="248.3"/>
		</g>
	</g>
	<path class="st0" d="M378,103.8h-58c-1.6,0-3-1.3-3-3V90.2c0-1.6,1.3-3,3-3h58c1.6,0,3,1.3,3,3v10.6
		C381,102.4,379.7,103.8,378,103.8z"/>
	<path class="st0" d="M378,82.4h-58c-1.6,0-3-1.3-3-3V68.8c0-1.6,1.3-3,3-3h58c1.6,0,3,1.3,3,3v10.6C381,81.1,379.7,82.4,378,82.4z"
		/>
	<path class="st0" d="M378,125.1h-58c-1.6,0-3-1.3-3-3v-10.6c0-1.6,1.3-3,3-3h58c1.6,0,3,1.3,3,3v10.6
		C381,123.8,379.7,125.1,378,125.1z"/>
	<g>
		<g>
			<g>
				<rect x="281" y="176.5" class="st3" width="28.7" height="19.4"/>
				<path class="st1" d="M276,175.2h31.1v21.9H276V175.2z M304.7,177.7h-26.3v17h26.3V177.7z"/>
			</g>
			<g>
				<path class="st3" d="M296.8,176.5v-4.8c0-0.6,0.5-1.1,1.1-1.1h6.2c0.6,0,1.1,0.5,1.1,1.1v4.8H296.8z"/>
				<path class="st1" d="M291.8,171.7c0-1.2,1-2.3,2.3-2.3h6.2c1.2,0,2.3,1,2.3,2.3v6h-10.7V171.7z M300.1,171.8h-5.9v3.4h5.9V171.8
					z"/>
			</g>
		</g>
		<g>
			<g>
				<rect x="281" y="208.4" class="st3" width="28.7" height="19.4"/>
				<path class="st1" d="M276,207.2h31.1v21.9H276V207.2z M304.7,209.7h-26.3v17h26.3V209.7z"/>
			</g>
			<g>
				<path class="st3" d="M296.8,208.4v-4.8c0-0.6,0.5-1.1,1.1-1.1h6.2c0.6,0,1.1,0.5,1.1,1.1v4.8H296.8z"/>
				<path class="st1" d="M291.8,203.7c0-1.2,1-2.3,2.3-2.3h6.2c1.2,0,2.3,1,2.3,2.3v6h-10.7V203.7z M300.1,203.8h-5.9v3.4h5.9V203.8
					z"/>
			</g>
		</g>
	</g>
	<g>
		<g>
			<g>
				<rect x="281" y="18.9" class="st3" width="28.7" height="19.4"/>
				<path class="st1" d="M276,17.7h31.1v21.9H276V17.7z M304.7,20.1h-26.3v17h26.3V20.1z"/>
			</g>
			<g>
				<path class="st3" d="M296.8,18.9v-4.8c0-0.6,0.5-1.1,1.1-1.1h6.2c0.6,0,1.1,0.5,1.1,1.1v4.8H296.8z"/>
				<path class="st1" d="M291.8,14.1c0-1.2,1-2.3,2.3-2.3h6.2c1.2,0,2.3,1,2.3,2.3v6h-10.7V14.1z M300.1,14.3h-5.9v3.4h5.9V14.3z"/>
			</g>
		</g>
	</g>
</g>
</svg>
