<?xml version="1.0" standalone="no"?>
<!DOCTYPE svg PUBLIC "-//W3C//DTD SVG 20010904//EN"
 "http://www.w3.org/TR/2001/REC-SVG-20010904/DTD/svg10.dtd">
<svg version="1.0" xmlns="http://www.w3.org/2000/svg"
 width="480.000000pt" height="480.000000pt" viewBox="0 0 480.000000 480.000000"
 preserveAspectRatio="xMidYMid meet">
<metadata>
Created by potrace 1.11, written by Peter Selinger 2001-2013
</metadata>
<g transform="translate(0.000000,480.000000) scale(0.100000,-0.100000)"
fill="#000000" stroke="none">
<path d="M0 2400 l0 -2400 2400 0 2400 0 0 2400 0 2400 -2400 0 -2400 0 0
-2400z m3348 1894 c192 -95 184 -372 -13 -461 -36 -16 -88 -18 -555 -23 -497
-6 -517 -7 -573 -27 -257 -97 -368 -244 -384 -508 -7 -119 12 -235 52 -319 32
-67 112 -157 170 -191 96 -57 268 -103 426 -115 495 -39 868 -330 979 -765 58
-226 48 -500 -25 -715 -118 -348 -436 -606 -832 -675 -68 -12 -186 -15 -577
-15 -318 0 -505 4 -530 11 -46 13 -120 79 -149 134 -30 56 -30 164 0 220 27
52 77 99 128 122 36 16 88 18 555 23 497 6 517 7 573 27 203 77 310 181 363
358 29 93 26 317 -5 405 -29 83 -69 146 -130 203 -60 57 -98 75 -240 121 -93
30 -138 39 -245 46 -298 22 -542 127 -731 315 -244 245 -344 619 -270 1011 71
377 327 662 707 788 151 51 195 54 744 55 l510 1 52 -26z"/>
</g>
</svg>
